#1: Isolating dispersal jumps and diffusive spread • jumpID
…
We load this dataset that contains all the occurrences of the spotted
lanternfly, and take a look at it.

slf <- read.csv(file.path(here::here(), "data", "lyde_data_v2", "lyde.csv"))
slf %<>% select(bio_year, latitude, longitude, lyde_established) 
tibble::tibble(slf)

## # A tibble: 831,039 × 4
##    bio_year latitude longitude lyde_established
##       <int>    <dbl>     <dbl> <lgl>           
##  1     2015     40.4     -75.7 FALSE           
##  2     2016     40.3     -75.6 FALSE           
##  3     2016     40.4     -75.5 FALSE           
##  4     2016     40.4     -75.6 FALSE           
##  5     2016     40.4     -75.7 FALSE           
##  6     2016     40.5     -75.6 FALSE           
##  7     2016     40.6     -75.5 FALSE           
##  8     2016     40.4     -75.7 FALSE           
##  9     2016     40.4     -75.6 FALSE           
## 10     2017     40.1     -75.5 FALSE           
## # ℹ 831,029 more rows
…
grid_data <- slf %>%
  dplyr::group_by(year, latitude, longitude) %>%
  dplyr::summarise(established = any(established)) %>% 
  ungroup()

## `summarise()` has grouped output by 'year', 'latitude'. You can override using
## the `.groups` argument.

tibble::tibble(grid_data)

## # A tibble: 123,542 × 4
##     year latitude longitude established
##    <int>    <dbl>     <dbl> <lgl>      
##  1  2014     39.8     -76.8 FALSE      
##  2  2014     39.8     -76.3 FALSE      
##  3  2014     39.8     -76.4 FALSE      
##  4  2014     39.9     -76.6 FALSE      
##  5  2014     39.9     -76.9 FALSE      
##  6  2014     39.9     -76.5 FALSE      
##  7  2014     39.9     -76.8 FALSE      
##  8  2014     39.9     -76.8 FALSE      
##  9  2014     39.9     -76.2 FALSE      
## 10  2014     39.9     -76.8 FALSE      
## # ℹ 123,532 more rows
…
